<?xml version="1.0" encoding="UTF-8"?>
<kml xmlns="http://www.opengis.net/kml/2.2" xmlns:gx="http://www.google.com/kml/ext/2.2" xmlns:kml="http://www.opengis.net/kml/2.2" xmlns:atom="http://www.w3.org/2005/Atom">
<Document>
	<name>Khanh Binh.kml</name>
	<Style id="PolyStyle00">
		<LabelStyle>
			<color>00000000</color>
			<scale>0</scale>
		</LabelStyle>
		<LineStyle>
			<color>ff6e6e6e</color>
			<width>0.4</width>
		</LineStyle>
		<PolyStyle>
			<color>fffaf0ca</color>
		</PolyStyle>
	</Style>
	<Placemark id="ID_00000">
		<name>Xã Khánh Bình</name>
		<Snippet maxLines="0"></Snippet>
		<description><![CDATA[<html xmlns:fo="http://www.w3.org/1999/XSL/Format" xmlns:msxsl="urn:schemas-microsoft-com:xslt">

<head>

<META http-equiv="Content-Type" content="text/html">

<meta http-equiv="content-type" content="text/html; charset=UTF-8">

</head>

<body style="margin:0px 0px 0px 0px;overflow:auto;background:#FFFFFF;">

<table style="font-family:Arial,Verdana,Times;font-size:12px;text-align:left;width:100%;border-collapse:collapse;padding:3px 3px 3px 3px">

<tr style="text-align:center;font-weight:bold;background:#9CBCE2">

<td>Xã Khánh Bình</td>

</tr>

<tr>

<td>

<table style="font-family:Arial,Verdana,Times;font-size:12px;text-align:left;width:100%;border-spacing:0px; padding:3px 3px 3px 3px">

<tr>

<td>OBJECTID_1</td>

<td>1</td>

</tr>

<tr bgcolor="#D4E4F3">

<td>name</td>

<td>Xã Khánh Bình</td>

</tr>

<tr>

<td>code</td>

<td>960407

</td>

</tr>

<tr bgcolor="#D4E4F3">

<td>points</td>

<td>105.052628643872,9.16141903201449</td>

</tr>

<tr>

<td>type</td>

<td>Xã</td>

</tr>

</table>

</td>

</tr>

</table>

</body>

</html>]]></description>
		<styleUrl>#PolyStyle00</styleUrl>
		<MultiGeometry>
			<Polygon>
				<outerBoundaryIs>
					<LinearRing>
						<coordinates>
							105.0871429440002,9.173964500000125,0 105.0871734620002,9.185482025000169,0 105.0878829960001,9.191586494000148,0 105.0280685420001,9.186952591000136,0 105.0286407470002,9.179791451000028,0 105.0274658200002,9.170969009000146,0 105.0304183960001,9.171594620000121,0 105.0275878910001,9.163971901000139,0 105.0316238400001,9.163697243000115,0 105.026824951,9.150310516000161,0 105.0232620240002,9.151419640000086,0 105.0236129760001,9.147380829000156,0 105.0227050780001,9.144831657000054,0 105.0252685550002,9.144100189000142,0 105.0262374880002,9.145806313000094,0 105.0270080570001,9.145413399000063,0 105.0256195070001,9.142712593000056,0 105.0264968870001,9.142332077000049,0 105.0272598270001,9.143346786000052,0 105.0278091430001,9.139734268000097,0 105.0291137700001,9.137368202000118,0 105.0261764530002,9.130887985000129,0 105.0269393920001,9.130600928999968,0 105.026130676,9.129116058000136,0 105.0297317500001,9.125918388000059,0 105.0297851560001,9.126426697000113,0 105.0382537840002,9.115262985000129,0 105.0503997800001,9.130805969000107,0 105.0620803830001,9.141188622000186,0 105.068267822,9.149349213000107,0 105.076805115,9.157379150000054,0 105.0855484010001,9.167399406000129,0 105.0871429440002,9.173964500000125,0 
						</coordinates>
					</LinearRing>
				</outerBoundaryIs>
			</Polygon>
		</MultiGeometry>
	</Placemark>
</Document>
</kml>
