<?xml version="1.0" encoding="UTF-8"?>
<kml xmlns="http://www.opengis.net/kml/2.2" xmlns:gx="http://www.google.com/kml/ext/2.2" xmlns:kml="http://www.opengis.net/kml/2.2" xmlns:atom="http://www.w3.org/2005/Atom">
<Document>
	<name>Du an.kml</name>
	<Style id="PolyStyle00">
		<LabelStyle>
			<color>00000000</color>
			<scale>0</scale>
		</LabelStyle>
		<LineStyle>
			<color>ff6e6e6e</color>
			<width>0.4</width>
		</LineStyle>
		<PolyStyle>
			<color>ffcafcc2</color>
		</PolyStyle>
	</Style>
	<Folder id="FeatureLayer0">
		<name>wgs_84_new</name>
		<open>1</open>
		<Snippet maxLines="0"></Snippet>
		<Placemark id="ID_00000">
			<name>106.940133754953,10.9075583920928</name>
			<Snippet maxLines="0"></Snippet>
			<description><![CDATA[<html xmlns:fo="http://www.w3.org/1999/XSL/Format" xmlns:msxsl="urn:schemas-microsoft-com:xslt">

<head>

<META http-equiv="Content-Type" content="text/html">

<meta http-equiv="content-type" content="text/html; charset=UTF-8">

</head>

<body style="margin:0px 0px 0px 0px;overflow:auto;background:#FFFFFF;">

<table style="font-family:Arial,Verdana,Times;font-size:12px;text-align:left;width:100%;border-collapse:collapse;padding:3px 3px 3px 3px">

<tr style="text-align:center;font-weight:bold;background:#9CBCE2">

<td>106.940133754953,10.9075583920928</td>

</tr>

<tr>

<td>

<table style="font-family:Arial,Verdana,Times;font-size:12px;text-align:left;width:100%;border-spacing:0px; padding:3px 3px 3px 3px">

<tr>

<td>points</td>

<td>106.940133754953,10.9075583920928</td>

</tr>

<tr bgcolor="#D4E4F3">

<td>ward_id</td>

<td>750129</td>

</tr>

<tr>

<td>category_id</td>

<td>SOILS</td>

</tr>

<tr bgcolor="#D4E4F3">

<td>code</td>

<td>750129R38.115</td>

</tr>

<tr>

<td>number_of_sheet</td>

<td>38</td>

</tr>

<tr bgcolor="#D4E4F3">

<td>land_area</td>

<td>886.2617</td>

</tr>

<tr>

<td>number_of_parcel</td>

<td>115</td>

</tr>

<tr bgcolor="#D4E4F3">

<td>planning_category_id</td>

<td>LUK</td>

</tr>

<tr>

<td>planning_area</td>

<td>842.7617</td>

</tr>

<tr bgcolor="#D4E4F3">

<td>lost_area</td>

<td>43.5</td>

</tr>

</table>

</td>

</tr>

</table>

</body>

</html>]]></description>
			<styleUrl>#PolyStyle00</styleUrl>
			<MultiGeometry>
				<Polygon>
					<outerBoundaryIs>
						<LinearRing>
							<coordinates>
								106.940286766,10.90780837000006,0 106.9402726150001,10.90782544600006,0 106.9402894470001,10.90755454600003,0 106.9402292780001,10.90751964500004,0 106.9401731720001,10.90767034600003,0 106.9398762330001,10.90753375500003,0 106.9399065270001,10.90749736600003,0 106.9399277100001,10.90743429200006,0 106.9401978940001,10.90743167900007,0 106.9402033320001,10.90744038200006,0 106.9402649670001,10.90751476700007,0 106.9403436870001,10.90759670100005,0 106.9403583320001,10.90762702500007,0 106.9403908720001,10.90767023500007,0 106.940286766,10.90780837000006,0 
							</coordinates>
						</LinearRing>
					</outerBoundaryIs>
				</Polygon>
			</MultiGeometry>
		</Placemark>
		<Placemark id="ID_00001">
			<name>106.937871098961,10.9079855116694</name>
			<Snippet maxLines="0"></Snippet>
			<description><![CDATA[<html xmlns:fo="http://www.w3.org/1999/XSL/Format" xmlns:msxsl="urn:schemas-microsoft-com:xslt">

<head>

<META http-equiv="Content-Type" content="text/html">

<meta http-equiv="content-type" content="text/html; charset=UTF-8">

</head>

<body style="margin:0px 0px 0px 0px;overflow:auto;background:#FFFFFF;">

<table style="font-family:Arial,Verdana,Times;font-size:12px;text-align:left;width:100%;border-collapse:collapse;padding:3px 3px 3px 3px">

<tr style="text-align:center;font-weight:bold;background:#9CBCE2">

<td>106.937871098961,10.9079855116694</td>

</tr>

<tr>

<td>

<table style="font-family:Arial,Verdana,Times;font-size:12px;text-align:left;width:100%;border-spacing:0px; padding:3px 3px 3px 3px">

<tr>

<td>points</td>

<td>106.937871098961,10.9079855116694</td>

</tr>

<tr bgcolor="#D4E4F3">

<td>ward_id</td>

<td>750129</td>

</tr>

<tr>

<td>category_id</td>

<td>SOILS</td>

</tr>

<tr bgcolor="#D4E4F3">

<td>code</td>

<td>750129R38.35</td>

</tr>

<tr>

<td>number_of_sheet</td>

<td>38</td>

</tr>

<tr bgcolor="#D4E4F3">

<td>land_area</td>

<td>1502.864</td>

</tr>

<tr>

<td>number_of_parcel</td>

<td>35</td>

</tr>

<tr bgcolor="#D4E4F3">

<td>planning_category_id</td>

<td>CLN</td>

</tr>

<tr>

<td>planning_area</td>

<td>1502.864</td>

</tr>

<tr bgcolor="#D4E4F3">

<td>lost_area</td>

<td>0</td>

</tr>

</table>

</td>

</tr>

</table>

</body>

</html>]]></description>
			<styleUrl>#PolyStyle00</styleUrl>
			<MultiGeometry>
				<Polygon>
					<outerBoundaryIs>
						<LinearRing>
							<coordinates>
								106.9381323060001,10.90803455600008,0 106.9377973040001,10.90821185600004,0 106.9376139230001,10.90793310400005,0 106.9379386680001,10.90776002500007,0 106.9381323060001,10.90803455600008,0 
							</coordinates>
						</LinearRing>
					</outerBoundaryIs>
				</Polygon>
			</MultiGeometry>
		</Placemark>
		<Placemark id="ID_00002">
			<name>106.94023362212,10.9083250230244</name>
			<Snippet maxLines="0"></Snippet>
			<description><![CDATA[<html xmlns:fo="http://www.w3.org/1999/XSL/Format" xmlns:msxsl="urn:schemas-microsoft-com:xslt">

<head>

<META http-equiv="Content-Type" content="text/html">

<meta http-equiv="content-type" content="text/html; charset=UTF-8">

</head>

<body style="margin:0px 0px 0px 0px;overflow:auto;background:#FFFFFF;">

<table style="font-family:Arial,Verdana,Times;font-size:12px;text-align:left;width:100%;border-collapse:collapse;padding:3px 3px 3px 3px">

<tr style="text-align:center;font-weight:bold;background:#9CBCE2">

<td>106.94023362212,10.9083250230244</td>

</tr>

<tr>

<td>

<table style="font-family:Arial,Verdana,Times;font-size:12px;text-align:left;width:100%;border-spacing:0px; padding:3px 3px 3px 3px">

<tr>

<td>points</td>

<td>106.94023362212,10.9083250230244</td>

</tr>

<tr bgcolor="#D4E4F3">

<td>ward_id</td>

<td>750129</td>

</tr>

<tr>

<td>category_id</td>

<td>SOILS</td>

</tr>

<tr bgcolor="#D4E4F3">

<td>code</td>

<td>750129R38.113</td>

</tr>

<tr>

<td>number_of_sheet</td>

<td>38</td>

</tr>

<tr bgcolor="#D4E4F3">

<td>land_area</td>

<td>2846.134</td>

</tr>

<tr>

<td>number_of_parcel</td>

<td>113</td>

</tr>

<tr bgcolor="#D4E4F3">

<td>planning_category_id</td>

<td>ODT + CLN</td>

</tr>

<tr>

<td>planning_area</td>

<td>2846.134</td>

</tr>

<tr bgcolor="#D4E4F3">

<td>lost_area</td>

<td>0</td>

</tr>

</table>

</td>

</tr>

</table>

</body>

</html>]]></description>
			<styleUrl>#PolyStyle00</styleUrl>
			<MultiGeometry>
				<Polygon>
					<outerBoundaryIs>
						<LinearRing>
							<coordinates>
								106.9405642580001,10.90846580500005,0 106.9405205580001,10.90862570600007,0 106.9399463930001,10.90849716100007,0 106.9399100630001,10.90848902700003,0 106.940115608,10.90801494400006,0 106.9401463980001,10.90797777900002,0 106.9404611570001,10.90809722200004,0 106.9404512090001,10.90812287100005,0 106.940355642,10.90841833400003,0 106.9405642580001,10.90846580500005,0 
							</coordinates>
						</LinearRing>
					</outerBoundaryIs>
				</Polygon>
			</MultiGeometry>
		</Placemark>
		<Placemark id="ID_00003">
			<name>106.938356783792,10.90865801363</name>
			<Snippet maxLines="0"></Snippet>
			<description><![CDATA[<html xmlns:fo="http://www.w3.org/1999/XSL/Format" xmlns:msxsl="urn:schemas-microsoft-com:xslt">

<head>

<META http-equiv="Content-Type" content="text/html">

<meta http-equiv="content-type" content="text/html; charset=UTF-8">

</head>

<body style="margin:0px 0px 0px 0px;overflow:auto;background:#FFFFFF;">

<table style="font-family:Arial,Verdana,Times;font-size:12px;text-align:left;width:100%;border-collapse:collapse;padding:3px 3px 3px 3px">

<tr style="text-align:center;font-weight:bold;background:#9CBCE2">

<td>106.938356783792,10.90865801363</td>

</tr>

<tr>

<td>

<table style="font-family:Arial,Verdana,Times;font-size:12px;text-align:left;width:100%;border-spacing:0px; padding:3px 3px 3px 3px">

<tr>

<td>points</td>

<td>106.938356783792,10.90865801363</td>

</tr>

<tr bgcolor="#D4E4F3">

<td>ward_id</td>

<td>750129</td>

</tr>

<tr>

<td>category_id</td>

<td>SOILS</td>

</tr>

<tr bgcolor="#D4E4F3">

<td>code</td>

<td>750129R38.30</td>

</tr>

<tr>

<td>number_of_sheet</td>

<td>38</td>

</tr>

<tr bgcolor="#D4E4F3">

<td>land_area</td>

<td>1413.434</td>

</tr>

<tr>

<td>number_of_parcel</td>

<td>30</td>

</tr>

<tr bgcolor="#D4E4F3">

<td>planning_category_id</td>

<td>BHK</td>

</tr>

<tr>

<td>planning_area</td>

<td>1315.834</td>

</tr>

<tr bgcolor="#D4E4F3">

<td>lost_area</td>

<td>97.6</td>

</tr>

</table>

</td>

</tr>

</table>

</body>

</html>]]></description>
			<styleUrl>#PolyStyle00</styleUrl>
			<MultiGeometry>
				<Polygon>
					<outerBoundaryIs>
						<LinearRing>
							<coordinates>
								106.9386640050001,10.90861889600006,0 106.9382226010001,10.90887362700005,0 106.9380818640001,10.90875666800002,0 106.9381493890001,10.90868316700005,0 106.938232499,10.90859687000005,0 106.9383887230001,10.90843337900003,0 106.93852824,10.90852768000008,0 106.9386397230001,10.90860382400007,0 106.9386640050001,10.90861889600006,0 
							</coordinates>
						</LinearRing>
					</outerBoundaryIs>
				</Polygon>
			</MultiGeometry>
		</Placemark>
		<Placemark id="ID_00004">
			<name>106.938679726904,10.908098033112</name>
			<Snippet maxLines="0"></Snippet>
			<description><![CDATA[<html xmlns:fo="http://www.w3.org/1999/XSL/Format" xmlns:msxsl="urn:schemas-microsoft-com:xslt">

<head>

<META http-equiv="Content-Type" content="text/html">

<meta http-equiv="content-type" content="text/html; charset=UTF-8">

</head>

<body style="margin:0px 0px 0px 0px;overflow:auto;background:#FFFFFF;">

<table style="font-family:Arial,Verdana,Times;font-size:12px;text-align:left;width:100%;border-collapse:collapse;padding:3px 3px 3px 3px">

<tr style="text-align:center;font-weight:bold;background:#9CBCE2">

<td>106.938679726904,10.908098033112</td>

</tr>

<tr>

<td>

<table style="font-family:Arial,Verdana,Times;font-size:12px;text-align:left;width:100%;border-spacing:0px; padding:3px 3px 3px 3px">

<tr>

<td>points</td>

<td>106.938679726904,10.908098033112</td>

</tr>

<tr bgcolor="#D4E4F3">

<td>ward_id</td>

<td>750129</td>

</tr>

<tr>

<td>category_id</td>

<td>SOILS</td>

</tr>

<tr bgcolor="#D4E4F3">

<td>code</td>

<td>750129R38.37</td>

</tr>

<tr>

<td>number_of_sheet</td>

<td>38</td>

</tr>

<tr bgcolor="#D4E4F3">

<td>land_area</td>

<td>17937.67</td>

</tr>

<tr>

<td>number_of_parcel</td>

<td>37</td>

</tr>

<tr bgcolor="#D4E4F3">

<td>planning_category_id</td>

<td>ODT + CLN</td>

</tr>

<tr>

<td>planning_area</td>

<td>14732.47</td>

</tr>

<tr bgcolor="#D4E4F3">

<td>lost_area</td>

<td>3205.2</td>

</tr>

</table>

</td>

</tr>

</table>

</body>

</html>]]></description>
			<styleUrl>#PolyStyle00</styleUrl>
			<MultiGeometry>
				<Polygon>
					<outerBoundaryIs>
						<LinearRing>
							<coordinates>
								106.939289037,10.90886301800003,0 106.9393063840001,10.90894289100004,0 106.9390046310001,10.90880015600004,0 106.9387403580001,10.90866629000004,0 106.9386640050001,10.90861889600006,0 106.9386397230001,10.90860382400007,0 106.93852824,10.90852768000008,0 106.9383887230001,10.90843337900003,0 106.938232499,10.90859687000005,0 106.9381493890001,10.90868316700005,0 106.9378446070001,10.90827517500003,0 106.9377973040001,10.90821185600004,0 106.9381323060001,10.90803455600008,0 106.9379386680001,10.90776002500007,0 106.938171331,10.90764230200006,0 106.9383536170001,10.90754939600004,0 106.9385495100001,10.90744761300005,0 106.9392809080001,10.90744054500004,0 106.9392484740001,10.90759498000006,0 106.9392383010001,10.90770325800003,0 106.9392445540001,10.90782613500005,0 106.9392678310001,10.90818212100004,0 106.9392724620001,10.90836330500002,0 106.9392814410001,10.90856050200006,0 106.9392784490001,10.90875305700007,0 106.939289037,10.90886301800003,0 
							</coordinates>
						</LinearRing>
					</outerBoundaryIs>
				</Polygon>
			</MultiGeometry>
		</Placemark>
		<Placemark id="ID_00005">
			<name>106.939687433563,10.9081600383887</name>
			<Snippet maxLines="0"></Snippet>
			<description><![CDATA[<html xmlns:fo="http://www.w3.org/1999/XSL/Format" xmlns:msxsl="urn:schemas-microsoft-com:xslt">

<head>

<META http-equiv="Content-Type" content="text/html">

<meta http-equiv="content-type" content="text/html; charset=UTF-8">

</head>

<body style="margin:0px 0px 0px 0px;overflow:auto;background:#FFFFFF;">

<table style="font-family:Arial,Verdana,Times;font-size:12px;text-align:left;width:100%;border-collapse:collapse;padding:3px 3px 3px 3px">

<tr style="text-align:center;font-weight:bold;background:#9CBCE2">

<td>106.939687433563,10.9081600383887</td>

</tr>

<tr>

<td>

<table style="font-family:Arial,Verdana,Times;font-size:12px;text-align:left;width:100%;border-spacing:0px; padding:3px 3px 3px 3px">

<tr>

<td>points</td>

<td>106.939687433563,10.9081600383887</td>

</tr>

<tr bgcolor="#D4E4F3">

<td>ward_id</td>

<td>750129</td>

</tr>

<tr>

<td>category_id</td>

<td>SOILS</td>

</tr>

<tr bgcolor="#D4E4F3">

<td>code</td>

<td>750129R38.38</td>

</tr>

<tr>

<td>number_of_sheet</td>

<td>38</td>

</tr>

<tr bgcolor="#D4E4F3">

<td>land_area</td>

<td>13567.16</td>

</tr>

<tr>

<td>number_of_parcel</td>

<td>38</td>

</tr>

<tr bgcolor="#D4E4F3">

<td>planning_category_id</td>

<td>CLN</td>

</tr>

<tr>

<td>planning_area</td>

<td>13567.16</td>

</tr>

<tr bgcolor="#D4E4F3">

<td>lost_area</td>

<td>0</td>

</tr>

</table>

</td>

</tr>

</table>

</body>

</html>]]></description>
			<styleUrl>#PolyStyle00</styleUrl>
			<MultiGeometry>
				<Polygon>
					<outerBoundaryIs>
						<LinearRing>
							<coordinates>
								106.940072758,10.90883709200006,0 106.9400396980001,10.90901699200003,0 106.9398000570001,10.90898162500002,0 106.9395778570001,10.90895111300006,0 106.9395427300001,10.90895147200007,0 106.939498465,10.90894828100005,0 106.939381332,10.90893160800005,0 106.93934039,10.90891712500007,0 106.9393301730001,10.90887316100003,0 106.9393045510001,10.90874155400007,0 106.9393109270001,10.90861645000007,0 106.9393081040001,10.90844286500004,0 106.939293423,10.90808825800002,0 106.9392769710001,10.90781338300008,0 106.9392775950001,10.90765065600004,0 106.9393329950001,10.90744004100003,0 106.939610982,10.90743735100006,0 106.9399065270001,10.90749736600003,0 106.9398762330001,10.90753375500003,0 106.9401731720001,10.90767034600003,0 106.9402292780001,10.90751964500004,0 106.9402894470001,10.90755454600003,0 106.9402726150001,10.90782544600006,0 106.9402298480001,10.90787706300006,0 106.9401463980001,10.90797777900002,0 106.940115608,10.90801494400006,0 106.9399100630001,10.90848902700003,0 106.9399463930001,10.90849716100007,0 106.9399122770001,10.90866437400007,0 106.939829521,10.90863734100003,0 106.939802403,10.90877747900004,0 106.940072758,10.90883709200006,0 
							</coordinates>
						</LinearRing>
					</outerBoundaryIs>
				</Polygon>
			</MultiGeometry>
		</Placemark>
		<Placemark id="ID_00006">
			<name>106.940189396323,10.9087723726727</name>
			<Snippet maxLines="0"></Snippet>
			<description><![CDATA[<html xmlns:fo="http://www.w3.org/1999/XSL/Format" xmlns:msxsl="urn:schemas-microsoft-com:xslt">

<head>

<META http-equiv="Content-Type" content="text/html">

<meta http-equiv="content-type" content="text/html; charset=UTF-8">

</head>

<body style="margin:0px 0px 0px 0px;overflow:auto;background:#FFFFFF;">

<table style="font-family:Arial,Verdana,Times;font-size:12px;text-align:left;width:100%;border-collapse:collapse;padding:3px 3px 3px 3px">

<tr style="text-align:center;font-weight:bold;background:#9CBCE2">

<td>106.940189396323,10.9087723726727</td>

</tr>

<tr>

<td>

<table style="font-family:Arial,Verdana,Times;font-size:12px;text-align:left;width:100%;border-spacing:0px; padding:3px 3px 3px 3px">

<tr>

<td>points</td>

<td>106.940189396323,10.9087723726727</td>

</tr>

<tr bgcolor="#D4E4F3">

<td>ward_id</td>

<td>750129</td>

</tr>

<tr>

<td>category_id</td>

<td>SOILS</td>

</tr>

<tr bgcolor="#D4E4F3">

<td>code</td>

<td>750129R38.114</td>

</tr>

<tr>

<td>number_of_sheet</td>

<td>38</td>

</tr>

<tr bgcolor="#D4E4F3">

<td>land_area</td>

<td>3023.415</td>

</tr>

<tr>

<td>number_of_parcel</td>

<td>114</td>

</tr>

<tr bgcolor="#D4E4F3">

<td>planning_category_id</td>

<td>LUK</td>

</tr>

<tr>

<td>planning_area</td>

<td>3023.415</td>

</tr>

<tr bgcolor="#D4E4F3">

<td>lost_area</td>

<td>0</td>

</tr>

</table>

</td>

</tr>

</table>

</body>

</html>]]></description>
			<styleUrl>#PolyStyle00</styleUrl>
			<MultiGeometry>
				<Polygon>
					<outerBoundaryIs>
						<LinearRing>
							<coordinates>
								106.940515384,10.90864449700007,0 106.940386511,10.90907873400005,0 106.940058918,10.90901982800006,0 106.9400396980001,10.90901699200003,0 106.940072758,10.90883709200006,0 106.939802403,10.90877747900004,0 106.939829521,10.90863734100003,0 106.9399122770001,10.90866437400007,0 106.9399463930001,10.90849716100007,0 106.9405205580001,10.90862570600007,0 106.940515384,10.90864449700007,0 
							</coordinates>
						</LinearRing>
					</outerBoundaryIs>
				</Polygon>
			</MultiGeometry>
		</Placemark>
		<Placemark id="ID_00007">
			<name>106.937150158845,10.908474484148</name>
			<Snippet maxLines="0"></Snippet>
			<description><![CDATA[<html xmlns:fo="http://www.w3.org/1999/XSL/Format" xmlns:msxsl="urn:schemas-microsoft-com:xslt">

<head>

<META http-equiv="Content-Type" content="text/html">

<meta http-equiv="content-type" content="text/html; charset=UTF-8">

</head>

<body style="margin:0px 0px 0px 0px;overflow:auto;background:#FFFFFF;">

<table style="font-family:Arial,Verdana,Times;font-size:12px;text-align:left;width:100%;border-collapse:collapse;padding:3px 3px 3px 3px">

<tr style="text-align:center;font-weight:bold;background:#9CBCE2">

<td>106.937150158845,10.908474484148</td>

</tr>

<tr>

<td>

<table style="font-family:Arial,Verdana,Times;font-size:12px;text-align:left;width:100%;border-spacing:0px; padding:3px 3px 3px 3px">

<tr>

<td>points</td>

<td>106.937150158845,10.908474484148</td>

</tr>

<tr bgcolor="#D4E4F3">

<td>ward_id</td>

<td>750129</td>

</tr>

<tr>

<td>category_id</td>

<td>SOILS</td>

</tr>

<tr bgcolor="#D4E4F3">

<td>code</td>

<td>750129R38.77</td>

</tr>

<tr>

<td>number_of_sheet</td>

<td>38</td>

</tr>

<tr bgcolor="#D4E4F3">

<td>land_area</td>

<td>9019.303</td>

</tr>

<tr>

<td>number_of_parcel</td>

<td>77</td>

</tr>

<tr bgcolor="#D4E4F3">

<td>planning_category_id</td>

<td>BHK</td>

</tr>

<tr>

<td>planning_area</td>

<td>7866.203</td>

</tr>

<tr bgcolor="#D4E4F3">

<td>lost_area</td>

<td>1153.1</td>

</tr>

</table>

</td>

</tr>

</table>

</body>

</html>]]></description>
			<styleUrl>#PolyStyle00</styleUrl>
			<MultiGeometry>
				<Polygon>
					<outerBoundaryIs>
						<LinearRing>
							<coordinates>
								106.9371571840001,10.90887924500004,0 106.936808941,10.90914854200003,0 106.9367941340001,10.90907672100008,0 106.9368003070001,10.90889222000004,0 106.9367692500001,10.90884232500002,0 106.9366536750001,10.90865641700003,0 106.9364493690001,10.90850453600007,0 106.9364038530001,10.90847002500004,0 106.9376139230001,10.90793310400005,0 106.9377973040001,10.90821185600004,0 106.9378446070001,10.90827517500003,0 106.9371571840001,10.90887924500004,0 
							</coordinates>
						</LinearRing>
					</outerBoundaryIs>
				</Polygon>
			</MultiGeometry>
		</Placemark>
		<Placemark id="ID_00008">
			<name>106.940754324592,10.9089285724978</name>
			<Snippet maxLines="0"></Snippet>
			<description><![CDATA[<html xmlns:fo="http://www.w3.org/1999/XSL/Format" xmlns:msxsl="urn:schemas-microsoft-com:xslt">

<head>

<META http-equiv="Content-Type" content="text/html">

<meta http-equiv="content-type" content="text/html; charset=UTF-8">

</head>

<body style="margin:0px 0px 0px 0px;overflow:auto;background:#FFFFFF;">

<table style="font-family:Arial,Verdana,Times;font-size:12px;text-align:left;width:100%;border-collapse:collapse;padding:3px 3px 3px 3px">

<tr style="text-align:center;font-weight:bold;background:#9CBCE2">

<td>106.940754324592,10.9089285724978</td>

</tr>

<tr>

<td>

<table style="font-family:Arial,Verdana,Times;font-size:12px;text-align:left;width:100%;border-spacing:0px; padding:3px 3px 3px 3px">

<tr>

<td>points</td>

<td>106.940754324592,10.9089285724978</td>

</tr>

<tr bgcolor="#D4E4F3">

<td>ward_id</td>

<td>750129</td>

</tr>

<tr>

<td>category_id</td>

<td>SOILS</td>

</tr>

<tr bgcolor="#D4E4F3">

<td>code</td>

<td>750129R38.27</td>

</tr>

<tr>

<td>number_of_sheet</td>

<td>38</td>

</tr>

<tr bgcolor="#D4E4F3">

<td>land_area</td>

<td>3601.351</td>

</tr>

<tr>

<td>number_of_parcel</td>

<td>27</td>

</tr>

<tr bgcolor="#D4E4F3">

<td>planning_category_id</td>

<td>BHK</td>

</tr>

<tr>

<td>planning_area</td>

<td>1599.251</td>

</tr>

<tr bgcolor="#D4E4F3">

<td>lost_area</td>

<td>2002.1</td>

</tr>

</table>

</td>

</tr>

</table>

</body>

</html>]]></description>
			<styleUrl>#PolyStyle00</styleUrl>
			<MultiGeometry>
				<Polygon>
					<outerBoundaryIs>
						<LinearRing>
							<coordinates>
								106.9410542140001,10.90906720900006,0 106.9410305740001,10.90921721800004,0 106.9407684450001,10.90916960600003,0 106.9404400280001,10.90911078800002,0 106.9403847340001,10.90909319400004,0 106.940386511,10.90907873400005,0 106.940515384,10.90864449700007,0 106.9410756300001,10.90872499100004,0 106.9410542140001,10.90906720900006,0 
							</coordinates>
						</LinearRing>
					</outerBoundaryIs>
				</Polygon>
			</MultiGeometry>
		</Placemark>
		<Placemark id="ID_00009">
			<name>106.937615604675,10.9088670713284</name>
			<Snippet maxLines="0"></Snippet>
			<description><![CDATA[<html xmlns:fo="http://www.w3.org/1999/XSL/Format" xmlns:msxsl="urn:schemas-microsoft-com:xslt">

<head>

<META http-equiv="Content-Type" content="text/html">

<meta http-equiv="content-type" content="text/html; charset=UTF-8">

</head>

<body style="margin:0px 0px 0px 0px;overflow:auto;background:#FFFFFF;">

<table style="font-family:Arial,Verdana,Times;font-size:12px;text-align:left;width:100%;border-collapse:collapse;padding:3px 3px 3px 3px">

<tr style="text-align:center;font-weight:bold;background:#9CBCE2">

<td>106.937615604675,10.9088670713284</td>

</tr>

<tr>

<td>

<table style="font-family:Arial,Verdana,Times;font-size:12px;text-align:left;width:100%;border-spacing:0px; padding:3px 3px 3px 3px">

<tr>

<td>points</td>

<td>106.937615604675,10.9088670713284</td>

</tr>

<tr bgcolor="#D4E4F3">

<td>ward_id</td>

<td>750129</td>

</tr>

<tr>

<td>category_id</td>

<td>SOILS</td>

</tr>

<tr bgcolor="#D4E4F3">

<td>code</td>

<td>750129R38.33</td>

</tr>

<tr>

<td>number_of_sheet</td>

<td>38</td>

</tr>

<tr bgcolor="#D4E4F3">

<td>land_area</td>

<td>7034.014</td>

</tr>

<tr>

<td>number_of_parcel</td>

<td>33</td>

</tr>

<tr bgcolor="#D4E4F3">

<td>planning_category_id</td>

<td>BHK</td>

</tr>

<tr>

<td>planning_area</td>

<td>5105.114</td>

</tr>

<tr bgcolor="#D4E4F3">

<td>lost_area</td>

<td>1928.9</td>

</tr>

</table>

</td>

</tr>

</table>

</body>

</html>]]></description>
			<styleUrl>#PolyStyle00</styleUrl>
			<MultiGeometry>
				<Polygon>
					<outerBoundaryIs>
						<LinearRing>
							<coordinates>
								106.9380818640001,10.90875666800002,0 106.9373359410001,10.90954672700008,0 106.9371571840001,10.90887924500004,0 106.9378446070001,10.90827517500003,0 106.9381493890001,10.90868316700005,0 106.9380818640001,10.90875666800002,0 
							</coordinates>
						</LinearRing>
					</outerBoundaryIs>
				</Polygon>
			</MultiGeometry>
		</Placemark>
		<Placemark id="ID_00010">
			<name>106.942069620357,10.9090323253217</name>
			<Snippet maxLines="0"></Snippet>
			<description><![CDATA[<html xmlns:fo="http://www.w3.org/1999/XSL/Format" xmlns:msxsl="urn:schemas-microsoft-com:xslt">

<head>

<META http-equiv="Content-Type" content="text/html">

<meta http-equiv="content-type" content="text/html; charset=UTF-8">

</head>

<body style="margin:0px 0px 0px 0px;overflow:auto;background:#FFFFFF;">

<table style="font-family:Arial,Verdana,Times;font-size:12px;text-align:left;width:100%;border-collapse:collapse;padding:3px 3px 3px 3px">

<tr style="text-align:center;font-weight:bold;background:#9CBCE2">

<td>106.942069620357,10.9090323253217</td>

</tr>

<tr>

<td>

<table style="font-family:Arial,Verdana,Times;font-size:12px;text-align:left;width:100%;border-spacing:0px; padding:3px 3px 3px 3px">

<tr>

<td>points</td>

<td>106.942069620357,10.9090323253217</td>

</tr>

<tr bgcolor="#D4E4F3">

<td>ward_id</td>

<td>750129</td>

</tr>

<tr>

<td>category_id</td>

<td>SOILS</td>

</tr>

<tr bgcolor="#D4E4F3">

<td>code</td>

<td>750129R38.23</td>

</tr>

<tr>

<td>number_of_sheet</td>

<td>38</td>

</tr>

<tr bgcolor="#D4E4F3">

<td>land_area</td>

<td>11899.33</td>

</tr>

<tr>

<td>number_of_parcel</td>

<td>23</td>

</tr>

<tr bgcolor="#D4E4F3">

<td>planning_category_id</td>

<td>CLN</td>

</tr>

<tr>

<td>planning_area</td>

<td>0.03</td>

</tr>

<tr bgcolor="#D4E4F3">

<td>lost_area</td>

<td>11899.3</td>

</tr>

</table>

</td>

</tr>

</table>

</body>

</html>]]></description>
			<styleUrl>#PolyStyle00</styleUrl>
			<MultiGeometry>
				<Polygon>
					<outerBoundaryIs>
						<LinearRing>
							<coordinates>
								106.942249309,10.90961613800005,0 106.942202508,10.90967170400006,0 106.9414451790001,10.90926921100004,0 106.9414667410001,10.90914333400002,0 106.9414953720001,10.90904179400008,0 106.9416158460001,10.90883815800004,0 106.9416401320001,10.90875387400007,0 106.941659616,10.90865194900005,0 106.9418583510001,10.90859868300004,0 106.9419573340001,10.90852797500003,0 106.9420267670001,10.90842509700008,0 106.9420824100001,10.90834731400003,0 106.942157298,10.90835836000002,0 106.9423058740001,10.90831626200003,0 106.9423799540001,10.90869444100002,0 106.9425724600001,10.90871167300003,0 106.9425294070001,10.90934421500003,0 106.9424386730001,10.90957830500003,0 106.942431211,10.90959745200007,0 106.942249309,10.90961613800005,0 
							</coordinates>
						</LinearRing>
					</outerBoundaryIs>
				</Polygon>
			</MultiGeometry>
		</Placemark>
		<Placemark id="ID_00011">
			<name>106.937047401314,10.909384538217</name>
			<Snippet maxLines="0"></Snippet>
			<description><![CDATA[<html xmlns:fo="http://www.w3.org/1999/XSL/Format" xmlns:msxsl="urn:schemas-microsoft-com:xslt">

<head>

<META http-equiv="Content-Type" content="text/html">

<meta http-equiv="content-type" content="text/html; charset=UTF-8">

</head>

<body style="margin:0px 0px 0px 0px;overflow:auto;background:#FFFFFF;">

<table style="font-family:Arial,Verdana,Times;font-size:12px;text-align:left;width:100%;border-collapse:collapse;padding:3px 3px 3px 3px">

<tr style="text-align:center;font-weight:bold;background:#9CBCE2">

<td>106.937047401314,10.909384538217</td>

</tr>

<tr>

<td>

<table style="font-family:Arial,Verdana,Times;font-size:12px;text-align:left;width:100%;border-spacing:0px; padding:3px 3px 3px 3px">

<tr>

<td>points</td>

<td>106.937047401314,10.909384538217</td>

</tr>

<tr bgcolor="#D4E4F3">

<td>ward_id</td>

<td>750129</td>

</tr>

<tr>

<td>category_id</td>

<td>SOILS</td>

</tr>

<tr bgcolor="#D4E4F3">

<td>code</td>

<td>750129R38.32</td>

</tr>

<tr>

<td>number_of_sheet</td>

<td>38</td>

</tr>

<tr bgcolor="#D4E4F3">

<td>land_area</td>

<td>3947.297</td>

</tr>

<tr>

<td>number_of_parcel</td>

<td>32</td>

</tr>

<tr bgcolor="#D4E4F3">

<td>planning_category_id</td>

<td>BHK</td>

</tr>

<tr>

<td>planning_area</td>

<td>3933.297</td>

</tr>

<tr bgcolor="#D4E4F3">

<td>lost_area</td>

<td>14</td>

</tr>

</table>

</td>

</tr>

</table>

</body>

</html>]]></description>
			<styleUrl>#PolyStyle00</styleUrl>
			<MultiGeometry>
				<Polygon>
					<outerBoundaryIs>
						<LinearRing>
							<coordinates>
								106.9372110850001,10.90967893000004,0 106.9368029450001,10.90984021400004,0 106.9368465750001,10.90947120600004,0 106.9368324850001,10.90933764100004,0 106.936808941,10.90914854200003,0 106.9371571840001,10.90887924500004,0 106.9373359410001,10.90954672700008,0 106.9372110850001,10.90967893000004,0 
							</coordinates>
						</LinearRing>
					</outerBoundaryIs>
				</Polygon>
			</MultiGeometry>
		</Placemark>
		<Placemark id="ID_00012">
			<name>106.938997933763,10.9091936189396</name>
			<Snippet maxLines="0"></Snippet>
			<description><![CDATA[<html xmlns:fo="http://www.w3.org/1999/XSL/Format" xmlns:msxsl="urn:schemas-microsoft-com:xslt">

<head>

<META http-equiv="Content-Type" content="text/html">

<meta http-equiv="content-type" content="text/html; charset=UTF-8">

</head>

<body style="margin:0px 0px 0px 0px;overflow:auto;background:#FFFFFF;">

<table style="font-family:Arial,Verdana,Times;font-size:12px;text-align:left;width:100%;border-collapse:collapse;padding:3px 3px 3px 3px">

<tr style="text-align:center;font-weight:bold;background:#9CBCE2">

<td>106.938997933763,10.9091936189396</td>

</tr>

<tr>

<td>

<table style="font-family:Arial,Verdana,Times;font-size:12px;text-align:left;width:100%;border-spacing:0px; padding:3px 3px 3px 3px">

<tr>

<td>points</td>

<td>106.938997933763,10.9091936189396</td>

</tr>

<tr bgcolor="#D4E4F3">

<td>ward_id</td>

<td>750129</td>

</tr>

<tr>

<td>category_id</td>

<td>SOILS</td>

</tr>

<tr bgcolor="#D4E4F3">

<td>code</td>

<td>750129R38.98</td>

</tr>

<tr>

<td>number_of_sheet</td>

<td>38</td>

</tr>

<tr bgcolor="#D4E4F3">

<td>land_area</td>

<td>9086.708</td>

</tr>

<tr>

<td>number_of_parcel</td>

<td>98</td>

</tr>

<tr bgcolor="#D4E4F3">

<td>planning_category_id</td>

<td>BHK</td>

</tr>

<tr>

<td>planning_area</td>

<td>9086.708</td>

</tr>

<tr bgcolor="#D4E4F3">

<td>lost_area</td>

<td>0</td>

</tr>

</table>

</td>

</tr>

</table>

</body>

</html>]]></description>
			<styleUrl>#PolyStyle00</styleUrl>
			<MultiGeometry>
				<Polygon>
					<outerBoundaryIs>
						<LinearRing>
							<coordinates>
								106.9396082650001,10.90984882500004,0 106.939459658,10.90990168000008,0 106.9384140730001,10.90903275000005,0 106.9382226010001,10.90887362700005,0 106.9386640050001,10.90861889600006,0 106.9387403580001,10.90866629000004,0 106.9390046310001,10.90880015600004,0 106.9393063840001,10.90894289100004,0 106.939330989,10.90901094100008,0 106.9393936000001,10.90919779300003,0 106.939451993,10.90935470900007,0 106.9395216620001,10.90953615600006,0 106.9396103930001,10.90973862700002,0 106.9396209280001,10.90976659000006,0 106.93962643,10.90979535300005,0 106.9396252510001,10.90982545500003,0 106.9396082650001,10.90984882500004,0 
							</coordinates>
						</LinearRing>
					</outerBoundaryIs>
				</Polygon>
			</MultiGeometry>
		</Placemark>
		<Placemark id="ID_00013">
			<name>106.937791486041,10.9094185292811</name>
			<Snippet maxLines="0"></Snippet>
			<description><![CDATA[<html xmlns:fo="http://www.w3.org/1999/XSL/Format" xmlns:msxsl="urn:schemas-microsoft-com:xslt">

<head>

<META http-equiv="Content-Type" content="text/html">

<meta http-equiv="content-type" content="text/html; charset=UTF-8">

</head>

<body style="margin:0px 0px 0px 0px;overflow:auto;background:#FFFFFF;">

<table style="font-family:Arial,Verdana,Times;font-size:12px;text-align:left;width:100%;border-collapse:collapse;padding:3px 3px 3px 3px">

<tr style="text-align:center;font-weight:bold;background:#9CBCE2">

<td>106.937791486041,10.9094185292811</td>

</tr>

<tr>

<td>

<table style="font-family:Arial,Verdana,Times;font-size:12px;text-align:left;width:100%;border-spacing:0px; padding:3px 3px 3px 3px">

<tr>

<td>points</td>

<td>106.937791486041,10.9094185292811</td>

</tr>

<tr bgcolor="#D4E4F3">

<td>ward_id</td>

<td>750129</td>

</tr>

<tr>

<td>category_id</td>

<td>SOILS</td>

</tr>

<tr bgcolor="#D4E4F3">

<td>code</td>

<td>750129R38.31</td>

</tr>

<tr>

<td>number_of_sheet</td>

<td>38</td>

</tr>

<tr bgcolor="#D4E4F3">

<td>land_area</td>

<td>5596.301</td>

</tr>

<tr>

<td>number_of_parcel</td>

<td>31</td>

</tr>

<tr bgcolor="#D4E4F3">

<td>planning_category_id</td>

<td>CLN</td>

</tr>

<tr>

<td>planning_area</td>

<td>5596.301</td>

</tr>

<tr bgcolor="#D4E4F3">

<td>lost_area</td>

<td>0</td>

</tr>

</table>

</td>

</tr>

</table>

</body>

</html>]]></description>
			<styleUrl>#PolyStyle00</styleUrl>
			<MultiGeometry>
				<Polygon>
					<outerBoundaryIs>
						<LinearRing>
							<coordinates>
								106.937596893,10.90945466500006,0 106.938103207,10.91019533900004,0 106.9380746570001,10.91017882800003,0 106.9372110850001,10.90967893000004,0 106.9373359410001,10.90954672700008,0 106.9380818640001,10.90875666800002,0 106.9382226010001,10.90887362700005,0 106.9384140730001,10.90903275000005,0 106.937596893,10.90945466500006,0 
							</coordinates>
						</LinearRing>
					</outerBoundaryIs>
				</Polygon>
			</MultiGeometry>
		</Placemark>
		<Placemark id="ID_00014">
			<name>106.937258239489,10.9101740131961</name>
			<Snippet maxLines="0"></Snippet>
			<description><![CDATA[<html xmlns:fo="http://www.w3.org/1999/XSL/Format" xmlns:msxsl="urn:schemas-microsoft-com:xslt">

<head>

<META http-equiv="Content-Type" content="text/html">

<meta http-equiv="content-type" content="text/html; charset=UTF-8">

</head>

<body style="margin:0px 0px 0px 0px;overflow:auto;background:#FFFFFF;">

<table style="font-family:Arial,Verdana,Times;font-size:12px;text-align:left;width:100%;border-collapse:collapse;padding:3px 3px 3px 3px">

<tr style="text-align:center;font-weight:bold;background:#9CBCE2">

<td>106.937258239489,10.9101740131961</td>

</tr>

<tr>

<td>

<table style="font-family:Arial,Verdana,Times;font-size:12px;text-align:left;width:100%;border-spacing:0px; padding:3px 3px 3px 3px">

<tr>

<td>points</td>

<td>106.937258239489,10.9101740131961</td>

</tr>

<tr bgcolor="#D4E4F3">

<td>ward_id</td>

<td>750129</td>

</tr>

<tr>

<td>category_id</td>

<td>SOILS</td>

</tr>

<tr bgcolor="#D4E4F3">

<td>code</td>

<td>750129R38.1</td>

</tr>

<tr>

<td>number_of_sheet</td>

<td>38</td>

</tr>

<tr bgcolor="#D4E4F3">

<td>land_area</td>

<td>9747.904</td>

</tr>

<tr>

<td>number_of_parcel</td>

<td>1</td>

</tr>

<tr bgcolor="#D4E4F3">

<td>planning_category_id</td>

<td>BHK</td>

</tr>

<tr>

<td>planning_area</td>

<td>9747.904</td>

</tr>

<tr bgcolor="#D4E4F3">

<td>lost_area</td>

<td>0</td>

</tr>

</table>

</td>

</tr>

</table>

</body>

</html>]]></description>
			<styleUrl>#PolyStyle00</styleUrl>
			<MultiGeometry>
				<Polygon>
					<outerBoundaryIs>
						<LinearRing>
							<coordinates>
								106.9367211800001,10.91060934300003,0 106.9367196110001,10.91061422000007,0 106.9366273920001,10.91055150600005,0 106.9366658060001,10.91038517200008,0 106.9367194040001,10.91021951200003,0 106.9367583480001,10.91006005100007,0 106.9368029450001,10.90984021400004,0 106.9372110850001,10.90967893000004,0 106.9380746570001,10.91017882800003,0 106.938103207,10.91019533900004,0 106.9381814780001,10.91024065800002,0 106.9380093120001,10.91024427000002,0 106.9379397040001,10.91024282000007,0 106.9378418490001,10.91026814500003,0 106.9376137400001,10.91049328200006,0 106.9375813930001,10.91054752900004,0 106.937546835,10.91057437800004,0 106.9374941950001,10.91058987800005,0 106.9374198320001,10.91055397100007,0 106.9371517690001,10.91050181900005,0 106.937003937,10.91050504300006,0 106.9368189190001,10.91055942800006,0 106.9367826310001,10.91058265600003,0 106.9367211800001,10.91060934300003,0 
							</coordinates>
						</LinearRing>
					</outerBoundaryIs>
				</Polygon>
			</MultiGeometry>
		</Placemark>
		<Placemark id="ID_00015">
			<name>106.938499073678,10.9098013294236</name>
			<Snippet maxLines="0"></Snippet>
			<description><![CDATA[<html xmlns:fo="http://www.w3.org/1999/XSL/Format" xmlns:msxsl="urn:schemas-microsoft-com:xslt">

<head>

<META http-equiv="Content-Type" content="text/html">

<meta http-equiv="content-type" content="text/html; charset=UTF-8">

</head>

<body style="margin:0px 0px 0px 0px;overflow:auto;background:#FFFFFF;">

<table style="font-family:Arial,Verdana,Times;font-size:12px;text-align:left;width:100%;border-collapse:collapse;padding:3px 3px 3px 3px">

<tr style="text-align:center;font-weight:bold;background:#9CBCE2">

<td>106.938499073678,10.9098013294236</td>

</tr>

<tr>

<td>

<table style="font-family:Arial,Verdana,Times;font-size:12px;text-align:left;width:100%;border-spacing:0px; padding:3px 3px 3px 3px">

<tr>

<td>points</td>

<td>106.938499073678,10.9098013294236</td>

</tr>

<tr bgcolor="#D4E4F3">

<td>ward_id</td>

<td>750129</td>

</tr>

<tr>

<td>category_id</td>

<td>SOILS</td>

</tr>

<tr bgcolor="#D4E4F3">

<td>code</td>

<td>750129R38.101</td>

</tr>

<tr>

<td>number_of_sheet</td>

<td>38</td>

</tr>

<tr bgcolor="#D4E4F3">

<td>land_area</td>

<td>18095.26</td>

</tr>

<tr>

<td>number_of_parcel</td>

<td>101</td>

</tr>

<tr bgcolor="#D4E4F3">

<td>planning_category_id</td>

<td>CLN</td>

</tr>

<tr>

<td>planning_area</td>

<td>18095.26</td>

</tr>

<tr bgcolor="#D4E4F3">

<td>lost_area</td>

<td>0</td>

</tr>

</table>

</td>

</tr>

</table>

</body>

</html>]]></description>
			<styleUrl>#PolyStyle00</styleUrl>
			<MultiGeometry>
				<Polygon>
					<outerBoundaryIs>
						<LinearRing>
							<coordinates>
								106.9390102090001,10.91019424400002,0 106.9388523410001,10.91071103200005,0 106.9387934590001,10.91067369300004,0 106.9386753740001,10.91060277400004,0 106.9385095270001,10.91046889600005,0 106.9381814780001,10.91024065800002,0 106.938103207,10.91019533900004,0 106.937596893,10.90945466500006,0 106.9384140730001,10.90903275000005,0 106.939459658,10.90990168000008,0 106.9393866190001,10.90992763200006,0 106.9393417250001,10.90994358700004,0 106.9391750190001,10.91000862600004,0 106.9390551310001,10.91010014200003,0 106.9390102090001,10.91019424400002,0 
							</coordinates>
						</LinearRing>
					</outerBoundaryIs>
				</Polygon>
			</MultiGeometry>
		</Placemark>
		<Placemark id="ID_00016">
			<name>106.938032842335,10.910566564151</name>
			<Snippet maxLines="0"></Snippet>
			<description><![CDATA[<html xmlns:fo="http://www.w3.org/1999/XSL/Format" xmlns:msxsl="urn:schemas-microsoft-com:xslt">

<head>

<META http-equiv="Content-Type" content="text/html">

<meta http-equiv="content-type" content="text/html; charset=UTF-8">

</head>

<body style="margin:0px 0px 0px 0px;overflow:auto;background:#FFFFFF;">

<table style="font-family:Arial,Verdana,Times;font-size:12px;text-align:left;width:100%;border-collapse:collapse;padding:3px 3px 3px 3px">

<tr style="text-align:center;font-weight:bold;background:#9CBCE2">

<td>106.938032842335,10.910566564151</td>

</tr>

<tr>

<td>

<table style="font-family:Arial,Verdana,Times;font-size:12px;text-align:left;width:100%;border-spacing:0px; padding:3px 3px 3px 3px">

<tr>

<td>points</td>

<td>106.938032842335,10.910566564151</td>

</tr>

<tr bgcolor="#D4E4F3">

<td>ward_id</td>

<td>750129</td>

</tr>

<tr>

<td>category_id</td>

<td>SOILS</td>

</tr>

<tr bgcolor="#D4E4F3">

<td>code</td>

<td>750129R38.2</td>

</tr>

<tr>

<td>number_of_sheet</td>

<td>38</td>

</tr>

<tr bgcolor="#D4E4F3">

<td>land_area</td>

<td>5250.282</td>

</tr>

<tr>

<td>number_of_parcel</td>

<td>2</td>

</tr>

<tr bgcolor="#D4E4F3">

<td>planning_category_id</td>

<td>BHK</td>

</tr>

<tr>

<td>planning_area</td>

<td>5250.282</td>

</tr>

<tr bgcolor="#D4E4F3">

<td>lost_area</td>

<td>0</td>

</tr>

</table>

</td>

</tr>

</table>

</body>

</html>]]></description>
			<styleUrl>#PolyStyle00</styleUrl>
			<MultiGeometry>
				<Polygon>
					<outerBoundaryIs>
						<LinearRing>
							<coordinates>
								106.9385095270001,10.91046889600005,0 106.938193669,10.91097288000003,0 106.9380064970001,10.91087700700007,0 106.937850423,10.91081602200006,0 106.9375844460001,10.91066958400006,0 106.937529108,10.91063463100005,0 106.9374941950001,10.91058987800005,0 106.937546835,10.91057437800004,0 106.9375813930001,10.91054752900004,0 106.9376137400001,10.91049328200006,0 106.9378418490001,10.91026814500003,0 106.9379397040001,10.91024282000007,0 106.9380093120001,10.91024427000002,0 106.9381814780001,10.91024065800002,0 106.9385095270001,10.91046889600005,0 
							</coordinates>
						</LinearRing>
					</outerBoundaryIs>
				</Polygon>
			</MultiGeometry>
		</Placemark>
		<Placemark id="ID_00017">
			<name>106.937194453697,10.9108825602648</name>
			<Snippet maxLines="0"></Snippet>
			<description><![CDATA[<html xmlns:fo="http://www.w3.org/1999/XSL/Format" xmlns:msxsl="urn:schemas-microsoft-com:xslt">

<head>

<META http-equiv="Content-Type" content="text/html">

<meta http-equiv="content-type" content="text/html; charset=UTF-8">

</head>

<body style="margin:0px 0px 0px 0px;overflow:auto;background:#FFFFFF;">

<table style="font-family:Arial,Verdana,Times;font-size:12px;text-align:left;width:100%;border-collapse:collapse;padding:3px 3px 3px 3px">

<tr style="text-align:center;font-weight:bold;background:#9CBCE2">

<td>106.937194453697,10.9108825602648</td>

</tr>

<tr>

<td>

<table style="font-family:Arial,Verdana,Times;font-size:12px;text-align:left;width:100%;border-spacing:0px; padding:3px 3px 3px 3px">

<tr>

<td>points</td>

<td>106.937194453697,10.9108825602648</td>

</tr>

<tr bgcolor="#D4E4F3">

<td>ward_id</td>

<td>750129</td>

</tr>

<tr>

<td>category_id</td>

<td>SOILS</td>

</tr>

<tr bgcolor="#D4E4F3">

<td>code</td>

<td>750129R37.94</td>

</tr>

<tr>

<td>number_of_sheet</td>

<td>37</td>

</tr>

<tr bgcolor="#D4E4F3">

<td>land_area</td>

<td>2288.944</td>

</tr>

<tr>

<td>number_of_parcel</td>

<td>94</td>

</tr>

<tr bgcolor="#D4E4F3">

<td>planning_category_id</td>

<td>BHK</td>

</tr>

<tr>

<td>planning_area</td>

<td>2288.944</td>

</tr>

<tr bgcolor="#D4E4F3">

<td>lost_area</td>

<td>0</td>

</tr>

</table>

</td>

</tr>

</table>

</body>

</html>]]></description>
			<styleUrl>#PolyStyle00</styleUrl>
			<MultiGeometry>
				<Polygon>
					<outerBoundaryIs>
						<LinearRing>
							<coordinates>
								106.9375409340001,10.91089439600006,0 106.9373160410001,10.91116809700003,0 106.9370925090001,10.91101081400007,0 106.9370477090001,10.91097928800002,0 106.9368012800001,10.91080588800003,0 106.936834139,10.91078168300004,0 106.9369910770001,10.91072668200008,0 106.936999707,10.91068132200007,0 106.9370453030001,10.91066616400008,0 106.9371582100001,10.91065624800007,0 106.9372768030001,10.91070827400006,0 106.9373509850001,10.91077708900002,0 106.9373923000001,10.91078895100003,0 106.9374079570001,10.91081692800003,0 106.9374510610001,10.91084344000007,0 106.9375409340001,10.91089439600006,0 
							</coordinates>
						</LinearRing>
					</outerBoundaryIs>
				</Polygon>
			</MultiGeometry>
		</Placemark>
		<Placemark id="ID_00018">
			<name>106.938645067011,10.9109935949234</name>
			<Snippet maxLines="0"></Snippet>
			<description><![CDATA[<html xmlns:fo="http://www.w3.org/1999/XSL/Format" xmlns:msxsl="urn:schemas-microsoft-com:xslt">

<head>

<META http-equiv="Content-Type" content="text/html">

<meta http-equiv="content-type" content="text/html; charset=UTF-8">

</head>

<body style="margin:0px 0px 0px 0px;overflow:auto;background:#FFFFFF;">

<table style="font-family:Arial,Verdana,Times;font-size:12px;text-align:left;width:100%;border-collapse:collapse;padding:3px 3px 3px 3px">

<tr style="text-align:center;font-weight:bold;background:#9CBCE2">

<td>106.938645067011,10.9109935949234</td>

</tr>

<tr>

<td>

<table style="font-family:Arial,Verdana,Times;font-size:12px;text-align:left;width:100%;border-spacing:0px; padding:3px 3px 3px 3px">

<tr>

<td>points</td>

<td>106.938645067011,10.9109935949234</td>

</tr>

<tr bgcolor="#D4E4F3">

<td>ward_id</td>

<td>750129</td>

</tr>

<tr>

<td>category_id</td>

<td>SOILS</td>

</tr>

<tr bgcolor="#D4E4F3">

<td>code</td>

<td>750129R38.3</td>

</tr>

<tr>

<td>number_of_sheet</td>

<td>38</td>

</tr>

<tr bgcolor="#D4E4F3">

<td>land_area</td>

<td>5655.665</td>

</tr>

<tr>

<td>number_of_parcel</td>

<td>3</td>

</tr>

<tr bgcolor="#D4E4F3">

<td>planning_category_id</td>

<td>BHK</td>

</tr>

<tr>

<td>planning_area</td>

<td>5655.665</td>

</tr>

<tr bgcolor="#D4E4F3">

<td>lost_area</td>

<td>0</td>

</tr>

</table>

</td>

</tr>

</table>

</body>

</html>]]></description>
			<styleUrl>#PolyStyle00</styleUrl>
			<MultiGeometry>
				<Polygon>
					<outerBoundaryIs>
						<LinearRing>
							<coordinates>
								106.9389847090001,10.91135720900007,0 106.9389321770001,10.91150144600005,0 106.9386158400001,10.91133878400007,0 106.9384632370001,10.91121208300007,0 106.9383350780001,10.91111184600004,0 106.938193669,10.91097288000003,0 106.9385095270001,10.91046889600005,0 106.9386753740001,10.91060277400004,0 106.9387934590001,10.91067369300004,0 106.9388523410001,10.91071103200005,0 106.9388832240001,10.91073061400005,0 106.9388800390001,10.91082562100007,0 106.9389244830001,10.91096523400006,0 106.9389794530001,10.91110279500003,0 106.9390405670001,10.91120086600006,0 106.9390200540001,10.91127629900007,0 106.9389847090001,10.91135720900007,0 
							</coordinates>
						</LinearRing>
					</outerBoundaryIs>
				</Polygon>
			</MultiGeometry>
		</Placemark>
		<Placemark id="ID_00019">
			<name>106.939050416901,10.912705193479</name>
			<Snippet maxLines="0"></Snippet>
			<description><![CDATA[<html xmlns:fo="http://www.w3.org/1999/XSL/Format" xmlns:msxsl="urn:schemas-microsoft-com:xslt">

<head>

<META http-equiv="Content-Type" content="text/html">

<meta http-equiv="content-type" content="text/html; charset=UTF-8">

</head>

<body style="margin:0px 0px 0px 0px;overflow:auto;background:#FFFFFF;">

<table style="font-family:Arial,Verdana,Times;font-size:12px;text-align:left;width:100%;border-collapse:collapse;padding:3px 3px 3px 3px">

<tr style="text-align:center;font-weight:bold;background:#9CBCE2">

<td>106.939050416901,10.912705193479</td>

</tr>

<tr>

<td>

<table style="font-family:Arial,Verdana,Times;font-size:12px;text-align:left;width:100%;border-spacing:0px; padding:3px 3px 3px 3px">

<tr>

<td>points</td>

<td>106.939050416901,10.912705193479</td>

</tr>

<tr bgcolor="#D4E4F3">

<td>ward_id</td>

<td>750129</td>

</tr>

<tr>

<td>category_id</td>

<td>SOILS</td>

</tr>

<tr bgcolor="#D4E4F3">

<td>code</td>

<td>750129R37.79</td>

</tr>

<tr>

<td>number_of_sheet</td>

<td>37</td>

</tr>

<tr bgcolor="#D4E4F3">

<td>land_area</td>

<td>2279.893</td>

</tr>

<tr>

<td>number_of_parcel</td>

<td>79</td>

</tr>

<tr bgcolor="#D4E4F3">

<td>planning_category_id</td>

<td>LUC</td>

</tr>

<tr>

<td>planning_area</td>

<td>2279.893</td>

</tr>

<tr bgcolor="#D4E4F3">

<td>lost_area</td>

<td>0</td>

</tr>

</table>

</td>

</tr>

</table>

</body>

</html>]]></description>
			<styleUrl>#PolyStyle00</styleUrl>
			<MultiGeometry>
				<Polygon>
					<outerBoundaryIs>
						<LinearRing>
							<coordinates>
								106.939291912,10.91283108100004,0 106.9392508800001,10.91294118500002,0 106.938730675,10.91279683200003,0 106.938808426,10.91257504000004,0 106.938846127,10.91246909500006,0 106.939374366,10.91261568400006,0 106.939291912,10.91283108100004,0 
							</coordinates>
						</LinearRing>
					</outerBoundaryIs>
				</Polygon>
			</MultiGeometry>
		</Placemark>
		<Placemark id="ID_00020">
			<name>106.940499022031,10.9083015415262</name>
			<Snippet maxLines="0"></Snippet>
			<description><![CDATA[<html xmlns:fo="http://www.w3.org/1999/XSL/Format" xmlns:msxsl="urn:schemas-microsoft-com:xslt">

<head>

<META http-equiv="Content-Type" content="text/html">

<meta http-equiv="content-type" content="text/html; charset=UTF-8">

</head>

<body style="margin:0px 0px 0px 0px;overflow:auto;background:#FFFFFF;">

<table style="font-family:Arial,Verdana,Times;font-size:12px;text-align:left;width:100%;border-collapse:collapse;padding:3px 3px 3px 3px">

<tr style="text-align:center;font-weight:bold;background:#9CBCE2">

<td>106.940499022031,10.9083015415262</td>

</tr>

<tr>

<td>

<table style="font-family:Arial,Verdana,Times;font-size:12px;text-align:left;width:100%;border-spacing:0px; padding:3px 3px 3px 3px">

<tr>

<td>points</td>

<td>106.940499022031,10.9083015415262</td>

</tr>

<tr bgcolor="#D4E4F3">

<td>ward_id</td>

<td>750129</td>

</tr>

<tr>

<td>category_id</td>

<td>SOILS</td>

</tr>

<tr bgcolor="#D4E4F3">

<td>code</td>

<td>750129R38.40</td>

</tr>

<tr>

<td>number_of_sheet</td>

<td>38</td>

</tr>

<tr bgcolor="#D4E4F3">

<td>land_area</td>

<td>731.2537</td>

</tr>

<tr>

<td>number_of_parcel</td>

<td>40</td>

</tr>

<tr bgcolor="#D4E4F3">

<td>planning_category_id</td>

<td>ODT + CLN</td>

</tr>

<tr>

<td>planning_area</td>

<td>731.2537</td>

</tr>

<tr bgcolor="#D4E4F3">

<td>lost_area</td>

<td>0</td>

</tr>

</table>

</td>

</tr>

</table>

</body>

</html>]]></description>
			<styleUrl>#PolyStyle00</styleUrl>
			<MultiGeometry>
				<Polygon>
					<outerBoundaryIs>
						<LinearRing>
							<coordinates>
								106.940633786,10.90819224200004,0 106.9405642580001,10.90846580500005,0 106.940355642,10.90841833400003,0 106.9404512090001,10.90812287100005,0 106.940633786,10.90819224200004,0 
							</coordinates>
						</LinearRing>
					</outerBoundaryIs>
				</Polygon>
			</MultiGeometry>
		</Placemark>
		<Placemark id="ID_00021">
			<name>106.941045910807,10.9092452421641</name>
			<Snippet maxLines="0"></Snippet>
			<description><![CDATA[<html xmlns:fo="http://www.w3.org/1999/XSL/Format" xmlns:msxsl="urn:schemas-microsoft-com:xslt">

<head>

<META http-equiv="Content-Type" content="text/html">

<meta http-equiv="content-type" content="text/html; charset=UTF-8">

</head>

<body style="margin:0px 0px 0px 0px;overflow:auto;background:#FFFFFF;">

<table style="font-family:Arial,Verdana,Times;font-size:12px;text-align:left;width:100%;border-collapse:collapse;padding:3px 3px 3px 3px">

<tr style="text-align:center;font-weight:bold;background:#9CBCE2">

<td>106.941045910807,10.9092452421641</td>

</tr>

<tr>

<td>

<table style="font-family:Arial,Verdana,Times;font-size:12px;text-align:left;width:100%;border-spacing:0px; padding:3px 3px 3px 3px">

<tr>

<td>points</td>

<td>106.941045910807,10.9092452421641</td>

</tr>

<tr bgcolor="#D4E4F3">

<td>ward_id</td>

<td>750129</td>

</tr>

<tr>

<td>category_id</td>

<td>SOILS</td>

</tr>

<tr bgcolor="#D4E4F3">

<td>code</td>

<td>750129R38.26</td>

</tr>

<tr>

<td>number_of_sheet</td>

<td>38</td>

</tr>

<tr bgcolor="#D4E4F3">

<td>land_area</td>

<td>1367.076</td>

</tr>

<tr>

<td>number_of_parcel</td>

<td>26</td>

</tr>

<tr bgcolor="#D4E4F3">

<td>planning_category_id</td>

<td>BHK</td>

</tr>

<tr>

<td>planning_area</td>

<td>123.576</td>

</tr>

<tr bgcolor="#D4E4F3">

<td>lost_area</td>

<td>1243.5</td>

</tr>

</table>

</td>

</tr>

</table>

</body>

</html>]]></description>
			<styleUrl>#PolyStyle00</styleUrl>
			<MultiGeometry>
				<Polygon>
					<outerBoundaryIs>
						<LinearRing>
							<coordinates>
								106.9408624160001,10.90980268900006,0 106.9407802430001,10.90981323000005,0 106.9410305740001,10.90921721800004,0 106.9410542140001,10.90906720900006,0 106.9410756300001,10.90872499100004,0 106.9411121110001,10.90876495600003,0 106.941150587,10.90881188800006,0 106.94120538,10.90891337700003,0 106.9412464980001,10.90903173500004,0 106.9412308390001,10.90910555500005,0 106.9411684490001,10.90910719800007,0 106.9410645550001,10.90920103500002,0 106.9410856500001,10.90928191300003,0 106.9411372440001,10.90934858700007,0 106.941001477,10.90949070700003,0 106.9409803650001,10.90958539600007,0 106.9409417060001,10.90964007900004,0 106.9409259480001,10.90964944000007,0 106.9408624160001,10.90980268900006,0 
							</coordinates>
						</LinearRing>
					</outerBoundaryIs>
				</Polygon>
			</MultiGeometry>
		</Placemark>
		<Placemark id="ID_00022">
			<name>106.940191796923,10.9094364259007</name>
			<Snippet maxLines="0"></Snippet>
			<description><![CDATA[<html xmlns:fo="http://www.w3.org/1999/XSL/Format" xmlns:msxsl="urn:schemas-microsoft-com:xslt">

<head>

<META http-equiv="Content-Type" content="text/html">

<meta http-equiv="content-type" content="text/html; charset=UTF-8">

</head>

<body style="margin:0px 0px 0px 0px;overflow:auto;background:#FFFFFF;">

<table style="font-family:Arial,Verdana,Times;font-size:12px;text-align:left;width:100%;border-collapse:collapse;padding:3px 3px 3px 3px">

<tr style="text-align:center;font-weight:bold;background:#9CBCE2">

<td>106.940191796923,10.9094364259007</td>

</tr>

<tr>

<td>

<table style="font-family:Arial,Verdana,Times;font-size:12px;text-align:left;width:100%;border-spacing:0px; padding:3px 3px 3px 3px">

<tr>

<td>points</td>

<td>106.940191796923,10.9094364259007</td>

</tr>

<tr bgcolor="#D4E4F3">

<td>ward_id</td>

<td>750129</td>

</tr>

<tr>

<td>category_id</td>

<td>SOILS</td>

</tr>

<tr bgcolor="#D4E4F3">

<td>code</td>

<td>750129R38.28</td>

</tr>

<tr>

<td>number_of_sheet</td>

<td>38</td>

</tr>

<tr bgcolor="#D4E4F3">

<td>land_area</td>

<td>12860.38</td>

</tr>

<tr>

<td>number_of_parcel</td>

<td>28</td>

</tr>

<tr bgcolor="#D4E4F3">

<td>planning_category_id</td>

<td>CLN</td>

</tr>

<tr>

<td>planning_area</td>

<td>11671.48</td>

</tr>

<tr bgcolor="#D4E4F3">

<td>lost_area</td>

<td>1188.9</td>

</tr>

</table>

</td>

</tr>

</table>

</body>

</html>]]></description>
			<styleUrl>#PolyStyle00</styleUrl>
			<MultiGeometry>
				<Polygon>
					<outerBoundaryIs>
						<LinearRing>
							<coordinates>
								106.9401208960001,10.90991364500007,0 106.9399590800001,10.90994648600002,0 106.9397927150001,10.90993610200007,0 106.9396134620001,10.90951723300003,0 106.9395609590001,10.90938103400004,0 106.9395330630001,10.90931216300004,0 106.9394979180001,10.90921768700002,0 106.9394821660001,10.90912317200002,0 106.939456766,10.90907835400003,0 106.939475057,10.90901240700003,0 106.939498465,10.90894828100005,0 106.9395427300001,10.90895147200007,0 106.9395778570001,10.90895111300006,0 106.9398000570001,10.90898162500002,0 106.9400396980001,10.90901699200003,0 106.940058918,10.90901982800006,0 106.940386511,10.90907873400005,0 106.9403847340001,10.90909319400004,0 106.9404400280001,10.90911078800002,0 106.9407684450001,10.90916960600003,0 106.9410305740001,10.90921721800004,0 106.9407802430001,10.90981323000005,0 106.9405062530001,10.90982181800007,0 106.9404157960001,10.90985123200005,0 106.9402330710001,10.90986964400003,0 106.9401208960001,10.90991364500007,0 
							</coordinates>
						</LinearRing>
					</outerBoundaryIs>
				</Polygon>
			</MultiGeometry>
		</Placemark>
		<Placemark id="ID_00023">
			<name>106.939545895813,10.909523365537</name>
			<Snippet maxLines="0"></Snippet>
			<description><![CDATA[<html xmlns:fo="http://www.w3.org/1999/XSL/Format" xmlns:msxsl="urn:schemas-microsoft-com:xslt">

<head>

<META http-equiv="Content-Type" content="text/html">

<meta http-equiv="content-type" content="text/html; charset=UTF-8">

</head>

<body style="margin:0px 0px 0px 0px;overflow:auto;background:#FFFFFF;">

<table style="font-family:Arial,Verdana,Times;font-size:12px;text-align:left;width:100%;border-collapse:collapse;padding:3px 3px 3px 3px">

<tr style="text-align:center;font-weight:bold;background:#9CBCE2">

<td>106.939545895813,10.909523365537</td>

</tr>

<tr>

<td>

<table style="font-family:Arial,Verdana,Times;font-size:12px;text-align:left;width:100%;border-spacing:0px; padding:3px 3px 3px 3px">

<tr>

<td>points</td>

<td>106.939545895813,10.909523365537</td>

</tr>

<tr bgcolor="#D4E4F3">

<td>ward_id</td>

<td>750129</td>

</tr>

<tr>

<td>category_id</td>

<td>SOILS</td>

</tr>

<tr bgcolor="#D4E4F3">

<td>code</td>

<td>750129R38.29</td>

</tr>

<tr>

<td>number_of_sheet</td>

<td>38</td>

</tr>

<tr bgcolor="#D4E4F3">

<td>land_area</td>

<td>1387.397</td>

</tr>

<tr>

<td>number_of_parcel</td>

<td>29</td>

</tr>

<tr bgcolor="#D4E4F3">

<td>planning_category_id</td>

<td>BHK</td>

</tr>

<tr>

<td>planning_area</td>

<td>1387.397</td>

</tr>

<tr bgcolor="#D4E4F3">

<td>lost_area</td>

<td>0</td>

</tr>

</table>

</td>

</tr>

</table>

</body>

</html>]]></description>
			<styleUrl>#PolyStyle00</styleUrl>
			<MultiGeometry>
				<Polygon>
					<outerBoundaryIs>
						<LinearRing>
							<coordinates>
								106.9395102270001,10.90997531300008,0 106.9394326940001,10.90999517800003,0 106.939388244,10.90999289000007,0 106.9393515530001,10.90996268900005,0 106.9396371440001,10.90985884600008,0 106.9396507500001,10.90983374900003,0 106.939648773,10.90978673400002,0 106.9396291570001,10.90973415600007,0 106.939502411,10.90944994900008,0 106.9394471310001,10.90929231700005,0 106.9393912020001,10.90913739600006,0 106.939350006,10.90901433600004,0 106.93934039,10.90891712500007,0 106.939381332,10.90893160800005,0 106.939498465,10.90894828100005,0 106.939475057,10.90901240700003,0 106.939456766,10.90907835400003,0 106.9394821660001,10.90912317200002,0 106.9394979180001,10.90921768700002,0 106.9395330630001,10.90931216300004,0 106.9395609590001,10.90938103400004,0 106.9396134620001,10.90951723300003,0 106.9397927150001,10.90993610200007,0 106.9397627810001,10.90994452100006,0 106.9395102270001,10.90997531300008,0 
							</coordinates>
						</LinearRing>
					</outerBoundaryIs>
				</Polygon>
			</MultiGeometry>
		</Placemark>
	</Folder>
</Document>
</kml>
