<?xml version="1.0" encoding="UTF-8"?>
<kml xmlns="http://www.opengis.net/kml/2.2" xmlns:gx="http://www.google.com/kml/ext/2.2" xmlns:kml="http://www.opengis.net/kml/2.2" xmlns:atom="http://www.w3.org/2005/Atom">
<Document>
	<name>Ranh Huyen Tran Van Thoi.kml</name>
	<Style id="PolyStyle00">
		<LabelStyle>
			<color>00000000</color>
			<scale>0</scale>
		</LabelStyle>
		<LineStyle>
			<color>ff000000</color>
			<width>0.4</width>
		</LineStyle>
		<PolyStyle>
			<color>ffbebeff</color>
		</PolyStyle>
	</Style>
	<Placemark id="ID_00000">
		<name>Huyện Trần Văn Thời</name>
		<Snippet maxLines="0"></Snippet>
		<description><![CDATA[<html xmlns:fo="http://www.w3.org/1999/XSL/Format" xmlns:msxsl="urn:schemas-microsoft-com:xslt">

<head>

<META http-equiv="Content-Type" content="text/html">

<meta http-equiv="content-type" content="text/html; charset=UTF-8">

</head>

<body style="margin:0px 0px 0px 0px;overflow:auto;background:#FFFFFF;">

<table style="font-family:Arial,Verdana,Times;font-size:12px;text-align:left;width:100%;border-collapse:collapse;padding:3px 3px 3px 3px">

<tr style="text-align:center;font-weight:bold;background:#9CBCE2">

<td></td>

</tr>

<tr>

<td>

<table style="font-family:Arial,Verdana,Times;font-size:12px;text-align:left;width:100%;border-spacing:0px; padding:3px 3px 3px 3px">

<tr>

<td>OBJECTID_1</td>

<td>1</td>

</tr>

<tr bgcolor="#D4E4F3">

<td>name</td>

<td>Huyện Trần Văn Thời</td>

</tr>

<tr>

<td>code</td>

<td>9604

</td>

</tr>

<tr bgcolor="#D4E4F3">

<td>main_code</td>

<td>04</td>

</tr>

<tr>

<td>type</td>

<td>Huyện</td>

</tr>

<tr bgcolor="#D4E4F3">

<td>points</td>

<td>104.919235429025,9.1319505616696</td>

</tr>

</table>

</td>

</tr>

</table>

</body>

</html>]]></description>
		<styleUrl>#PolyStyle00</styleUrl>
		<MultiGeometry>
			<Polygon>
				<outerBoundaryIs>
					<LinearRing>
						<coordinates>
							104.5656127930002,8.882358551000323,0 104.5614318850002,8.882619857999998,0 104.5593338010003,8.882663727000192,0 104.5590896610004,8.882064818999993,0 104.5607833860003,8.881618500000286,0 104.5656127930002,8.882358551000323,0 
						</coordinates>
					</LinearRing>
				</outerBoundaryIs>
			</Polygon>
			<Polygon>
				<outerBoundaryIs>
					<LinearRing>
						<coordinates>
							104.5298233030002,8.943758965000256,0 104.5297470090003,8.944890976000011,0 104.5280303960003,8.948506355000291,0 104.5275497440003,8.951869011000156,0 104.5264739990004,8.952470779000237,0 104.5259094240003,8.954620361000252,0 104.5254135130002,8.956568718000256,0 104.5237350460004,8.955408096000326,0 104.5247421260002,8.954376221000302,0 104.5223541260003,8.948239326000305,0 104.5240097050003,8.945622444000321,0 104.5257644650003,8.9448747630002,0 104.5266723630003,8.943367958000294,0 104.5286483760003,8.942661285000213,0 104.5298233030002,8.943758965000256,0 
						</coordinates>
					</LinearRing>
				</outerBoundaryIs>
			</Polygon>
			<Polygon>
				<outerBoundaryIs>
					<LinearRing>
						<coordinates>
							104.9306488040003,9.277342796000141,0 104.8490448000003,9.274569511000266,0 104.8333129880002,9.273475646999998,0 104.8212814330003,9.274431229000015,0 104.8209609990003,9.265892029000327,0 104.8214645390003,9.264064789000315,0 104.8206329350003,9.252549171000339,0 104.8207397460003,9.251447678000204,0 104.8225021360003,9.24925231900022,0 104.8204116820003,9.24861526500024,0 104.8200607300003,9.247492790000194,0 104.8188400270003,9.232819557000198,0 104.8148498540002,9.207469940000351,0 104.8107528690003,9.190139771000247,0 104.8077163700003,9.180894852000279,0 104.8089828490004,9.178910255000119,0 104.8089218140004,9.178120612999976,0 104.8082351680002,9.178020477000246,0 104.8096160890004,9.160626411000237,0 104.8103790280003,9.137578011000301,0 104.8092727660003,9.118306160000316,0 104.8100280760003,9.117208481000148,0 104.8090820310002,9.113456726000322,0 104.8094100950002,9.111115456000221,0 104.8086547850002,9.110504150000281,0 104.8094940190002,9.109203339000203,0 104.8084259030003,9.105494499000315,0 104.8093185420003,9.105116844000236,0 104.8083343510002,9.104505539000172,0 104.8087539670003,9.102554321000014,0 104.8080978390003,9.100975990000279,0 104.8085556030003,9.099477768000099,0 104.8079147340004,9.098714828000254,0 104.8080215450002,9.089582443000211,0 104.8072204590002,9.088266373000351,0 104.8078308110003,9.088164329999984,0 104.8072738650004,9.087532043000351,0 104.8079147340004,9.087124825000217,0 104.8079681400004,9.0847110750002,0 104.8070068360004,9.081976891000068,0 104.8077392580003,9.080644608000057,0 104.8071289060003,9.080042839000271,0 104.8077468870002,9.079771042000289,0 104.8068771360003,9.079220772000212,0 104.8073654170003,9.078843117000304,0 104.8066558840003,9.076313019000224,0 104.8069076540003,9.071957588000203,0 104.8060989380002,9.069499969000333,0 104.8061447140003,9.063864708000267,0 104.8051452640002,9.060397148000277,0 104.8057937620002,9.059193611000239,0 104.8046188350002,9.058038712000325,0 104.8056793210002,9.058002472000169,0 104.8048782350002,9.057442665000337,0 104.8047561650002,9.056701660000215,0 104.8055114750002,9.056505203000199,0 104.8044738770003,9.055079460000286,0 104.8053665160002,9.054621696000254,0 104.8041076660003,9.053451538000218,0 104.8049316410002,9.053277016000152,0 104.8044052120002,9.052033424000285,0 104.8052673340004,9.050724983000293,0 104.8045959470003,9.049932480000223,0 104.8053970340002,9.049633980000181,0 104.8040924070002,9.048332214000311,0 104.8055419920003,9.047918320000349,0 104.8041305540003,9.046209335000242,0 104.8047866820002,9.043268204000356,0 104.8046646120002,9.027959824000277,0 104.8027267460003,9.023410797000224,0 104.8022079470002,9.018231392000189,0 104.8040084840003,8.984363556000346,0 104.8048172000002,8.980283737000207,0 104.8093795780002,8.979680061000352,0 104.8173828120002,8.976334572000212,0 104.8205413820002,8.973771095000302,0 104.8240509030003,8.973304749000249,0 104.8255996700003,8.974102020000032,0 104.8272933960002,8.977036476000194,0 104.8262786870002,8.980764389000171,0 104.8270111080003,8.982891083000311,0 104.8300323490003,8.983514786000285,0 104.8316879270003,8.982178688000033,0 104.8330917360004,8.979253769000252,0 104.8349227910003,8.978507042000217,0 104.8360595700003,8.978931427000248,0 104.8417434690003,8.986218452000344,0 104.8477096560004,8.991217613000344,0 104.8492965700002,8.991570473000252,0 104.8518142700003,8.990439415000253,0 104.8535614010002,8.985136032000298,0 104.8552398680002,8.982775688000231,0 104.8580551150002,8.982290268000213,0 104.8634872440003,8.983039856000232,0 104.8665008540003,8.984609604000298,0 104.8675918580003,8.986347198000146,0 104.8685379030003,8.991723061000243,0 104.8698196410002,8.993619919000196,0 104.8797607420004,8.994785309000122,0 104.8842620850002,8.991802216000337,0 104.8856964110002,8.991797447000181,0 104.8878479000003,8.999086380000278,0 104.8890380860002,9.000293731999989,0 104.8971557620002,9.004813194000008,0 104.9057083130003,9.004404068000269,0 104.9071502690002,9.004936218000239,0 104.9120712280003,9.009519577000333,0 104.9151306150002,9.010722160000284,0 104.9252548220003,9.009779930000263,0 104.9280700680003,9.008873940000285,0 104.9329910280003,9.005070686000181,0 104.9354858400004,8.999800682000227,0 104.9403381350003,8.995595932000356,0 104.9444885250003,8.994754791000275,0 104.9537963870002,8.994953156000065,0 104.9621963500002,8.998071671000275,0 104.9685592650003,8.996623039000326,0 104.9677963260003,8.99788856500021,0 104.9708938600003,9.003994942000361,0 104.9704513550004,9.006699562000335,0 104.9691162110004,9.008891106000306,0 104.9693908690003,9.013024330000121,0 104.9642486570003,9.018550873000265,0 104.9629592900003,9.018445015000225,0 104.9620437620002,9.017365456000334,0 104.9593276980002,9.018404007000356,0 104.9607696530002,9.021582603000297,0 104.9602813720002,9.026760101000207,0 104.9609680180002,9.031548500000213,0 104.9657821660003,9.041409492000241,0 104.9671096800004,9.040564537000193,0 104.9734268190003,9.047713280000266,0 104.9744949340004,9.050762177000195,0 104.9869003300004,9.053195953000284,0 104.9868927000003,9.058803558000193,0 104.9882583620003,9.059243202000346,0 104.9914550780003,9.058507919000192,0 104.9938125610003,9.059584617999974,0 104.9975891110003,9.059093475000282,0 105.0008850100002,9.060569763000217,0 105.0061798100002,9.061456680000333,0 105.0092086790003,9.063458443000343,0 105.0132751460002,9.064541817000247,0 105.0162734990003,9.068615913000201,0 105.0174560550004,9.067525864000345,0 105.0186157230002,9.068052292000175,0 105.0195236210002,9.067337990000226,0 105.0216217040003,9.069129944000167,0 105.0238494870002,9.072091103000332,0 105.0239868160003,9.072964668000225,0 105.0226593020002,9.074365616000307,0 105.0312652590002,9.08332157100034,0 105.0308380130002,9.087056160000316,0 105.0336074830002,9.088667870000279,0 105.0336303710004,9.092885971000328,0 105.0348052980003,9.092663765000225,0 105.0364074710003,9.094411850000199,0 105.0356597900003,9.095242500000154,0 105.0371322630002,9.096954346000246,0 105.0365982060003,9.097619057000259,0 105.0390243530002,9.098937035000233,0 105.0415802000002,9.103247643000202,0 105.0469436650004,9.107347488000244,0 105.0486526490004,9.112048149000032,0 105.0604705810003,9.12399959600009,0 105.0620040890004,9.125774384000238,0 105.0638275150002,9.125903130000211,0 105.0706253050003,9.132552147000297,0 105.0721511840004,9.132524490000264,0 105.0749588010002,9.134656906000316,0 105.0768203740003,9.134900093000056,0 105.0793762210003,9.138160706000292,0 105.0827941890003,9.137440681000328,0 105.0851440430002,9.140435219000267,0 105.0866012570002,9.140540123000278,0 105.0883255000003,9.142704964000245,0 105.0895767210004,9.142631531000291,0 105.0916824340002,9.145580292000091,0 105.0919036870004,9.147157669000137,0 105.0945358280002,9.150028229000327,0 105.0946578980002,9.152348518000224,0 105.0935287480002,9.15478992500033,0 105.0951614380003,9.158862114000215,0 105.0958557130003,9.15898418400036,0 105.0964889530003,9.162248611000166,0 105.0996551510003,9.16784572600028,0 105.1012115480003,9.172202110000285,0 105.1027755740003,9.171948433000352,0 105.1027069090004,9.17094135300016,0 105.1073837280003,9.170651436000242,0 105.1077423100003,9.172992706000343,0 105.1128234860003,9.173917770000344,0 105.1139450070003,9.175049782000201,0 105.1118240360004,9.175900459000331,0 105.1102066040003,9.178909302000136,0 105.1132202150003,9.179937363000192,0 105.1141052250003,9.186236382000288,0 105.1152267460004,9.186652184000252,0 105.1171569820002,9.186074257000314,0 105.1158599850003,9.194332123000208,0 105.1181259160002,9.195084572000212,0 105.1183624270004,9.197081566000236,0 105.1153793330003,9.196907043000238,0 105.1158676150004,9.202138901000239,0 105.1175460820002,9.202507019000336,0 105.1179656980003,9.20457458500033,0 105.1235656740004,9.205394745000149,0 105.1219635010002,9.20757770500029,0 105.1191635130002,9.208230019000268,0 105.1134109500002,9.208093642999984,0 105.1025314330004,9.205288887000279,0 105.0964431760003,9.201781273000336,0 105.0900421140002,9.200666428000204,0 105.0867233280002,9.201193810000291,0 105.0861816410003,9.199975967000341,0 105.0878829960003,9.191586494000319,0 105.0280685420003,9.186952591000306,0 105.0186309810002,9.186196327000289,0 105.0184097290002,9.19062805200025,0 105.0045013430004,9.189705849000234,0 105.0038528440003,9.198587418000272,0 104.9948501590003,9.197992324999973,0 104.9919967650003,9.239418030000195,0 104.9302444460003,9.239971161000199,0 104.9306488040003,9.277342796000141,0 
						</coordinates>
					</LinearRing>
				</outerBoundaryIs>
			</Polygon>
		</MultiGeometry>
	</Placemark>
</Document>
</kml>
